{
	"billingZipCode": 3777,
	"ADSDataSet": "A1",
	"ADSAccountNumber": "000000002",
	"AccountInfo": [{
		"MASCustomerUniqueID": 342342443434,
		"primaryAccount": true,
		"serviceAddress": {
			"houseNumber": 3829,
			"streetName": "BROOK VIEW CT",
			"addressLine2": " ",
			"city": "LOUISVILLE",
			"state": "TN ",
			"zip": "37777",
			"country": "US"
		}
	}]
}